EESchema Schematic File Version 4
EELAYER 30 0
EELAYER END
$Descr A4 11693 8268
encoding utf-8
Sheet 1 1
Title ""
Date ""
Rev ""
Comp ""
Comment1 ""
Comment2 ""
Comment3 ""
Comment4 ""
$EndDescr
$Comp
L MCU_ST_STM32F3:STM32F303K8Tx U2
U 1 1 5EADBB1F
P 7700 3350
F 0 "U2" H 7900 2300 50  0000 C CNN
F 1 "STM32F303K8Tx" H 8150 2400 50  0000 C CNN
F 2 "Package_QFP:LQFP-32_7x7mm_P0.8mm" H 7200 2450 50  0001 R CNN
F 3 "http://www.st.com/st-web-ui/static/active/en/resource/technical/document/datasheet/DM00092070.pdf" H 7700 3350 50  0001 C CNN
	1    7700 3350
	1    0    0    -1  
$EndComp
$Comp
L Regulator_Linear:AMS1117 U1
U 1 1 5EADE129
P 2850 2200
F 0 "U1" H 2850 2442 50  0000 C CNN
F 1 "TPS7B6933QDCYRQ1" H 2850 2351 50  0000 C CNN
F 2 "Package_TO_SOT_SMD:SOT-223-3_TabPin2" H 2850 2400 50  0001 C CNN
F 3 "http://www.advanced-monolithic.com/pdf/ds1117.pdf" H 2950 1950 50  0001 C CNN
	1    2850 2200
	1    0    0    -1  
$EndComp
$Comp
L Connector:USB_B_Micro J1
U 1 1 5EADE7FD
P 1500 2400
F 0 "J1" H 1557 2867 50  0000 C CNN
F 1 "USB_B_Micro" H 1557 2776 50  0000 C CNN
F 2 "Connector_USB:USB_Micro-B_Molex-105017-0001-angleo" H 1650 2350 50  0001 C CNN
F 3 "~" H 1650 2350 50  0001 C CNN
	1    1500 2400
	1    0    0    -1  
$EndComp
$Comp
L power:GND #PWR01
U 1 1 5EADF911
P 1500 2800
F 0 "#PWR01" H 1500 2550 50  0001 C CNN
F 1 "GND" H 1505 2627 50  0000 C CNN
F 2 "" H 1500 2800 50  0001 C CNN
F 3 "" H 1500 2800 50  0001 C CNN
	1    1500 2800
	1    0    0    -1  
$EndComp
NoConn ~ 1400 2800
NoConn ~ 1800 2500
NoConn ~ 1800 2400
NoConn ~ 1800 2600
$Comp
L Device:CP1_Small C1
U 1 1 5EAE00D0
P 2150 2350
F 0 "C1" H 2200 2450 50  0000 L CNN
F 1 "2.2u" H 2200 2250 50  0000 L CNN
F 2 "Capacitor_Tantalum_SMD:CP_EIA-6032-15_Kemet-U" H 2150 2350 50  0001 C CNN
F 3 "~" H 2150 2350 50  0001 C CNN
	1    2150 2350
	1    0    0    -1  
$EndComp
$Comp
L power:GND #PWR03
U 1 1 5EAE0B67
P 2150 2500
F 0 "#PWR03" H 2150 2250 50  0001 C CNN
F 1 "GND" H 2155 2327 50  0000 C CNN
F 2 "" H 2150 2500 50  0001 C CNN
F 3 "" H 2150 2500 50  0001 C CNN
	1    2150 2500
	1    0    0    -1  
$EndComp
$Comp
L power:GND #PWR05
U 1 1 5EAE0EE8
P 2850 2500
F 0 "#PWR05" H 2850 2250 50  0001 C CNN
F 1 "GND" H 2855 2327 50  0000 C CNN
F 2 "" H 2850 2500 50  0001 C CNN
F 3 "" H 2850 2500 50  0001 C CNN
	1    2850 2500
	1    0    0    -1  
$EndComp
$Comp
L power:+3.3V #PWR07
U 1 1 5EAE624C
P 3550 2100
F 0 "#PWR07" H 3550 1950 50  0001 C CNN
F 1 "+3.3V" H 3565 2273 50  0000 C CNN
F 2 "" H 3550 2100 50  0001 C CNN
F 3 "" H 3550 2100 50  0001 C CNN
	1    3550 2100
	1    0    0    -1  
$EndComp
$Comp
L Device:CP1_Small C4
U 1 1 5EAE6816
P 3550 2350
F 0 "C4" H 3600 2450 50  0000 L CNN
F 1 "10u" H 3600 2250 50  0000 L CNN
F 2 "Capacitor_Tantalum_SMD:CP_EIA-3528-21_Kemet-B_Pad1.50x2.35mm_HandSolder" H 3550 2350 50  0001 C CNN
F 3 "~" H 3550 2350 50  0001 C CNN
	1    3550 2350
	1    0    0    -1  
$EndComp
$Comp
L power:GND #PWR06
U 1 1 5EAE8DA6
P 3300 2500
F 0 "#PWR06" H 3300 2250 50  0001 C CNN
F 1 "GND" H 3305 2327 50  0000 C CNN
F 2 "" H 3300 2500 50  0001 C CNN
F 3 "" H 3300 2500 50  0001 C CNN
	1    3300 2500
	1    0    0    -1  
$EndComp
$Comp
L Device:C C3
U 1 1 5EAE92AA
P 3300 2350
F 0 "C3" H 3350 2450 50  0000 L CNN
F 1 "100n" H 3350 2250 50  0000 L CNN
F 2 "Capacitor_SMD:C_0402_1005Metric" H 3338 2200 50  0001 C CNN
F 3 "~" H 3300 2350 50  0001 C CNN
	1    3300 2350
	1    0    0    -1  
$EndComp
$Comp
L power:GND #PWR08
U 1 1 5EAE976C
P 3550 2500
F 0 "#PWR08" H 3550 2250 50  0001 C CNN
F 1 "GND" H 3555 2327 50  0000 C CNN
F 2 "" H 3550 2500 50  0001 C CNN
F 3 "" H 3550 2500 50  0001 C CNN
	1    3550 2500
	1    0    0    -1  
$EndComp
$Comp
L Device:C C2
U 1 1 5EAEBEC8
P 2400 2350
F 0 "C2" H 2450 2450 50  0000 L CNN
F 1 "100n" H 2450 2250 50  0000 L CNN
F 2 "Capacitor_SMD:C_0402_1005Metric" H 2438 2200 50  0001 C CNN
F 3 "~" H 2400 2350 50  0001 C CNN
	1    2400 2350
	1    0    0    -1  
$EndComp
Wire Wire Line
	1800 2200 1850 2200
Wire Wire Line
	2150 2500 2150 2450
Wire Wire Line
	2150 2250 2150 2200
Connection ~ 2150 2200
Wire Wire Line
	2150 2200 2400 2200
Connection ~ 2400 2200
Wire Wire Line
	2400 2200 2550 2200
$Comp
L power:GND #PWR04
U 1 1 5EAF96FE
P 2400 2500
F 0 "#PWR04" H 2400 2250 50  0001 C CNN
F 1 "GND" H 2405 2327 50  0000 C CNN
F 2 "" H 2400 2500 50  0001 C CNN
F 3 "" H 2400 2500 50  0001 C CNN
	1    2400 2500
	1    0    0    -1  
$EndComp
Wire Wire Line
	3150 2200 3300 2200
Connection ~ 3300 2200
Wire Wire Line
	3300 2200 3550 2200
Wire Wire Line
	3550 2250 3550 2200
Connection ~ 3550 2200
Wire Wire Line
	3550 2450 3550 2500
Wire Wire Line
	3550 2100 3550 2200
Wire Notes Line
	1150 3100 3800 3100
Wire Notes Line
	3800 3100 3800 1800
Wire Notes Line
	3800 1800 1150 1800
Wire Notes Line
	1150 1800 1150 3100
Text Notes 1150 1750 0    50   ~ 0
LOW DROPOUT\nLOW QUIESCENT CURRENT
$Comp
L power:+3.3V #PWR015
U 1 1 5EB0F7E3
P 7600 2200
F 0 "#PWR015" H 7600 2050 50  0001 C CNN
F 1 "+3.3V" H 7615 2373 50  0000 C CNN
F 2 "" H 7600 2200 50  0001 C CNN
F 3 "" H 7600 2200 50  0001 C CNN
	1    7600 2200
	1    0    0    -1  
$EndComp
Wire Wire Line
	7600 2200 7600 2300
Wire Wire Line
	7600 2300 7700 2300
Wire Wire Line
	7700 2300 7700 2450
Connection ~ 7600 2300
Wire Wire Line
	7600 2300 7600 2450
$Comp
L power:GND #PWR016
U 1 1 5EB139C1
P 7600 4500
F 0 "#PWR016" H 7600 4250 50  0001 C CNN
F 1 "GND" H 7605 4327 50  0000 C CNN
F 2 "" H 7600 4500 50  0001 C CNN
F 3 "" H 7600 4500 50  0001 C CNN
	1    7600 4500
	1    0    0    -1  
$EndComp
Wire Wire Line
	7600 4350 7600 4450
Wire Wire Line
	7600 4450 7700 4450
Wire Wire Line
	7700 4450 7700 4350
Connection ~ 7600 4450
Wire Wire Line
	7600 4450 7600 4500
Wire Wire Line
	7700 2300 7800 2300
Wire Wire Line
	7800 2300 7800 2450
Connection ~ 7700 2300
$Comp
L Device:C C6
U 1 1 5EB17312
P 6550 2850
F 0 "C6" H 6665 2896 50  0000 L CNN
F 1 "C" H 6665 2805 50  0000 L CNN
F 2 "Capacitor_SMD:C_0402_1005Metric" H 6588 2700 50  0001 C CNN
F 3 "~" H 6550 2850 50  0001 C CNN
	1    6550 2850
	1    0    0    -1  
$EndComp
$Comp
L Device:R R2
U 1 1 5EB1859E
P 6550 2450
F 0 "R2" H 6620 2496 50  0000 L CNN
F 1 "R" H 6620 2405 50  0000 L CNN
F 2 "Resistor_SMD:R_0402_1005Metric" V 6480 2450 50  0001 C CNN
F 3 "~" H 6550 2450 50  0001 C CNN
	1    6550 2450
	1    0    0    -1  
$EndComp
Wire Wire Line
	7100 2650 6550 2650
Wire Wire Line
	6550 2650 6550 2600
Wire Wire Line
	6550 2650 6550 2700
Connection ~ 6550 2650
$Comp
L power:+3.3V #PWR012
U 1 1 5EB192A6
P 6550 2300
F 0 "#PWR012" H 6550 2150 50  0001 C CNN
F 1 "+3.3V" H 6565 2473 50  0000 C CNN
F 2 "" H 6550 2300 50  0001 C CNN
F 3 "" H 6550 2300 50  0001 C CNN
	1    6550 2300
	1    0    0    -1  
$EndComp
$Comp
L power:GND #PWR013
U 1 1 5EB19737
P 6550 3000
F 0 "#PWR013" H 6550 2750 50  0001 C CNN
F 1 "GND" H 6555 2827 50  0000 C CNN
F 2 "" H 6550 3000 50  0001 C CNN
F 3 "" H 6550 3000 50  0001 C CNN
	1    6550 3000
	1    0    0    -1  
$EndComp
$Comp
L Connector:Conn_01x02_Female J2
U 1 1 5EB1BFDE
P 2250 1900
F 0 "J2" H 2278 1876 50  0000 L CNN
F 1 "P2" H 2278 1785 50  0000 L CNN
F 2 "Connector_PinHeader_2.54mm:PinHeader_1x02_P2.54mm_Vertical" H 2250 1900 50  0001 C CNN
F 3 "~" H 2250 1900 50  0001 C CNN
	1    2250 1900
	1    0    0    -1  
$EndComp
Wire Wire Line
	2050 1900 1850 1900
Wire Wire Line
	1850 1900 1850 2200
Connection ~ 1850 2200
Wire Wire Line
	1850 2200 2150 2200
Wire Wire Line
	2050 2000 1950 2000
Wire Wire Line
	1950 2000 1950 2500
$Comp
L power:GND #PWR02
U 1 1 5EB1E9AE
P 1950 2500
F 0 "#PWR02" H 1950 2250 50  0001 C CNN
F 1 "GND" H 1955 2327 50  0000 C CNN
F 2 "" H 1950 2500 50  0001 C CNN
F 3 "" H 1950 2500 50  0001 C CNN
	1    1950 2500
	1    0    0    -1  
$EndComp
$Comp
L Switch:SW_Push SW1
U 1 1 5EB22278
P 6200 2650
F 0 "SW1" H 6200 2935 50  0000 C CNN
F 1 "SW_Push" H 6200 2844 50  0000 C CNN
F 2 "Button_Switch_SMD:SW_Push_1P1T_NO_6x6mm_H9.5mm" H 6200 2850 50  0001 C CNN
F 3 "~" H 6200 2850 50  0001 C CNN
	1    6200 2650
	1    0    0    -1  
$EndComp
$Comp
L power:GND #PWR010
U 1 1 5EB22FC0
P 5900 3000
F 0 "#PWR010" H 5900 2750 50  0001 C CNN
F 1 "GND" H 5905 2827 50  0000 C CNN
F 2 "" H 5900 3000 50  0001 C CNN
F 3 "" H 5900 3000 50  0001 C CNN
	1    5900 3000
	1    0    0    -1  
$EndComp
Wire Wire Line
	6550 2650 6400 2650
Wire Wire Line
	6000 2650 5900 2650
Wire Wire Line
	5900 2650 5900 3000
$Comp
L Device:C C5
U 1 1 5EB25E8A
P 6150 3700
F 0 "C5" H 6265 3746 50  0000 L CNN
F 1 "33p" H 6265 3655 50  0000 L CNN
F 2 "Capacitor_SMD:C_0402_1005Metric" H 6188 3550 50  0001 C CNN
F 3 "~" H 6150 3700 50  0001 C CNN
	1    6150 3700
	1    0    0    -1  
$EndComp
$Comp
L Device:C C7
U 1 1 5EB262C4
P 6550 3700
F 0 "C7" H 6450 3600 50  0000 L CNN
F 1 "33p" H 6600 3600 50  0000 L CNN
F 2 "Capacitor_SMD:C_0402_1005Metric" H 6588 3550 50  0001 C CNN
F 3 "~" H 6550 3700 50  0001 C CNN
	1    6550 3700
	1    0    0    -1  
$EndComp
$Comp
L Device:Crystal Y1
U 1 1 5EB26675
P 6350 3500
F 0 "Y1" H 6350 3768 50  0000 C CNN
F 1 "8Mhz" H 6350 3677 50  0000 C CNN
F 2 "Crystal:Crystal_SMD_0603-2Pin_6.0x3.5mm_HandSoldering" H 6350 3500 50  0001 C CNN
F 3 "~" H 6350 3500 50  0001 C CNN
	1    6350 3500
	1    0    0    -1  
$EndComp
Wire Wire Line
	6150 3550 6150 3500
Wire Wire Line
	6150 3500 6200 3500
Wire Wire Line
	6500 3500 6550 3500
Wire Wire Line
	6550 3500 6550 3550
$Comp
L power:GND #PWR011
U 1 1 5EB28C7B
P 6150 3850
F 0 "#PWR011" H 6150 3600 50  0001 C CNN
F 1 "GND" H 6155 3677 50  0000 C CNN
F 2 "" H 6150 3850 50  0001 C CNN
F 3 "" H 6150 3850 50  0001 C CNN
	1    6150 3850
	1    0    0    -1  
$EndComp
$Comp
L power:GND #PWR014
U 1 1 5EB28FAD
P 6550 3850
F 0 "#PWR014" H 6550 3600 50  0001 C CNN
F 1 "GND" H 6555 3677 50  0000 C CNN
F 2 "" H 6550 3850 50  0001 C CNN
F 3 "" H 6550 3850 50  0001 C CNN
	1    6550 3850
	1    0    0    -1  
$EndComp
Wire Wire Line
	6150 3500 6150 3250
Wire Wire Line
	6150 3250 7100 3250
Connection ~ 6150 3500
Wire Wire Line
	7100 3350 6550 3350
Wire Wire Line
	6550 3350 6550 3500
Connection ~ 6550 3500
$Comp
L Device:R R1
U 1 1 5EB2EB39
P 5000 3550
F 0 "R1" H 5070 3596 50  0000 L CNN
F 1 "R" H 5070 3505 50  0000 L CNN
F 2 "Resistor_SMD:R_0402_1005Metric" V 4930 3550 50  0001 C CNN
F 3 "~" H 5000 3550 50  0001 C CNN
	1    5000 3550
	1    0    0    -1  
$EndComp
Wire Wire Line
	7100 2850 6850 2850
Text Label 6850 2850 0    50   ~ 0
B0
Wire Wire Line
	5000 3400 5000 3300
Wire Wire Line
	5000 3300 5200 3300
Text Label 5200 3300 2    50   ~ 0
B0
$Comp
L power:GND #PWR09
U 1 1 5EB36DA6
P 5000 3700
F 0 "#PWR09" H 5000 3450 50  0001 C CNN
F 1 "GND" H 5005 3527 50  0000 C CNN
F 2 "" H 5000 3700 50  0001 C CNN
F 3 "" H 5000 3700 50  0001 C CNN
	1    5000 3700
	1    0    0    -1  
$EndComp
$Comp
L Connector_Generic:Conn_02x04_Odd_Even J25
U 1 1 5EB3C432
P 9900 2700
F 0 "J25" H 9950 3017 50  0000 C CNN
F 1 "Conn_02x04_Odd_Even" H 9950 2926 50  0000 C CNN
F 2 "Connector_PinHeader_2.54mm:PinHeader_2x04_P2.54mm_Vertical" H 9900 2700 50  0001 C CNN
F 3 "~" H 9900 2700 50  0001 C CNN
	1    9900 2700
	1    0    0    -1  
$EndComp
Wire Wire Line
	10200 2600 10650 2600
Text Label 10650 2600 2    50   ~ 0
NRST
Text Label 6800 2650 0    50   ~ 0
NRST
Wire Wire Line
	9700 2600 9150 2600
Text Label 9150 2600 0    50   ~ 0
JTDO
Wire Wire Line
	6750 3750 6750 5000
Text Label 7550 5000 2    50   ~ 0
JTDO
$Comp
L power:+3.3V #PWR021
U 1 1 5EB4749E
P 10800 2450
F 0 "#PWR021" H 10800 2300 50  0001 C CNN
F 1 "+3.3V" H 10815 2623 50  0000 C CNN
F 2 "" H 10800 2450 50  0001 C CNN
F 3 "" H 10800 2450 50  0001 C CNN
	1    10800 2450
	1    0    0    -1  
$EndComp
Wire Wire Line
	10800 2700 10800 2450
Wire Wire Line
	10200 2700 10800 2700
Wire Wire Line
	8200 4150 8650 4150
Text Label 8650 4150 2    50   ~ 0
JTDI
Wire Wire Line
	9700 2700 9150 2700
Text Label 9150 2700 0    50   ~ 0
JTDI
Wire Wire Line
	9700 2900 9150 2900
Text Label 9150 2900 0    50   ~ 0
JTMS
Wire Wire Line
	9700 2800 9150 2800
Text Label 9150 2800 0    50   ~ 0
JTCK
$Comp
L power:GND #PWR020
U 1 1 5EB4DC86
P 10300 3000
F 0 "#PWR020" H 10300 2750 50  0001 C CNN
F 1 "GND" H 10305 2827 50  0000 C CNN
F 2 "" H 10300 3000 50  0001 C CNN
F 3 "" H 10300 3000 50  0001 C CNN
	1    10300 3000
	1    0    0    -1  
$EndComp
Wire Wire Line
	10200 2900 10300 2900
Wire Wire Line
	10200 2800 10300 2800
Wire Wire Line
	10300 2800 10300 2900
Connection ~ 10300 2900
Wire Wire Line
	10300 2900 10300 3000
$Comp
L Connector:Conn_01x01_Female J9
U 1 1 5EBAE893
P 8400 2650
F 0 "J9" H 8428 2676 50  0000 L CNN
F 1 "1P" H 8550 2700 50  0000 L CNN
F 2 "Connector_Pin:Pin_D1.0mm_L10.0mm" H 8400 2650 50  0001 C CNN
F 3 "~" H 8400 2650 50  0001 C CNN
	1    8400 2650
	1    0    0    -1  
$EndComp
Wire Wire Line
	8200 3350 9400 3350
$Comp
L power:GND #PWR019
U 1 1 5EBB61B4
P 9900 4100
F 0 "#PWR019" H 9900 3850 50  0001 C CNN
F 1 "GND" H 9905 3927 50  0000 C CNN
F 2 "" H 9900 4100 50  0001 C CNN
F 3 "" H 9900 4100 50  0001 C CNN
	1    9900 4100
	1    0    0    -1  
$EndComp
Wire Wire Line
	9400 3900 9600 3900
$Comp
L Connector:Conn_01x01_Female J26
U 1 1 5EBCA7C2
P 10100 3700
F 0 "J26" H 10128 3726 50  0000 L CNN
F 1 "Conn_01x01_Female" H 10128 3635 50  0000 L CNN
F 2 "Connector_Pin:Pin_D1.0mm_L10.0mm" H 10100 3700 50  0001 C CNN
F 3 "~" H 10100 3700 50  0001 C CNN
	1    10100 3700
	1    0    0    -1  
$EndComp
$Comp
L Connector:Conn_01x01_Female J23
U 1 1 5EBCD219
P 9000 5000
F 0 "J23" H 9050 5000 50  0000 L CNN
F 1 "P1" H 9250 5000 50  0000 L CNN
F 2 "Connector_PinHeader_2.54mm:PinHeader_1x01_P2.54mm_Vertical" H 9000 5000 50  0001 C CNN
F 3 "~" H 9000 5000 50  0001 C CNN
	1    9000 5000
	1    0    0    -1  
$EndComp
$Comp
L Connector:Conn_01x01_Female J24
U 1 1 5EBCD8AF
P 9000 5100
F 0 "J24" H 9050 5100 50  0000 L CNN
F 1 "P1" H 9250 5100 50  0000 L CNN
F 2 "Connector_Pin:Pin_D1.0mm_L10.0mm_LooseFit" H 9000 5100 50  0001 C CNN
F 3 "~" H 9000 5100 50  0001 C CNN
	1    9000 5100
	1    0    0    -1  
$EndComp
$Comp
L power:GND #PWR018
U 1 1 5EBCDE5F
P 8750 5150
F 0 "#PWR018" H 8750 4900 50  0001 C CNN
F 1 "GND" H 8755 4977 50  0000 C CNN
F 2 "" H 8750 5150 50  0001 C CNN
F 3 "" H 8750 5150 50  0001 C CNN
	1    8750 5150
	1    0    0    -1  
$EndComp
Wire Wire Line
	8800 5100 8750 5100
Wire Wire Line
	8750 5100 8750 5150
$Comp
L power:+3.3V #PWR017
U 1 1 5EBCF8D6
P 8750 5000
F 0 "#PWR017" H 8750 4850 50  0001 C CNN
F 1 "+3.3V" H 8765 5173 50  0000 C CNN
F 2 "" H 8750 5000 50  0001 C CNN
F 3 "" H 8750 5000 50  0001 C CNN
	1    8750 5000
	1    0    0    -1  
$EndComp
Wire Wire Line
	8800 5000 8750 5000
Wire Wire Line
	6750 5000 7550 5000
Wire Wire Line
	6750 3750 7100 3750
$Comp
L Connector:Conn_01x01_Female J10
U 1 1 5EBEFC3A
P 8400 2750
F 0 "J10" H 8428 2776 50  0000 L CNN
F 1 "1P" H 8550 2800 50  0000 L CNN
F 2 "Connector_Pin:Pin_D1.0mm_L10.0mm" H 8400 2750 50  0001 C CNN
F 3 "~" H 8400 2750 50  0001 C CNN
	1    8400 2750
	1    0    0    -1  
$EndComp
$Comp
L Connector:Conn_01x01_Female J11
U 1 1 5EBEFF1A
P 8400 2850
F 0 "J11" H 8428 2876 50  0000 L CNN
F 1 "1P" H 8550 2900 50  0000 L CNN
F 2 "Connector_Pin:Pin_D1.0mm_L10.0mm" H 8400 2850 50  0001 C CNN
F 3 "~" H 8400 2850 50  0001 C CNN
	1    8400 2850
	1    0    0    -1  
$EndComp
$Comp
L Connector:Conn_01x01_Female J12
U 1 1 5EBF0206
P 8400 2950
F 0 "J12" H 8428 2976 50  0000 L CNN
F 1 "1P" H 8550 3000 50  0000 L CNN
F 2 "Connector_Pin:Pin_D1.0mm_L10.0mm" H 8400 2950 50  0001 C CNN
F 3 "~" H 8400 2950 50  0001 C CNN
	1    8400 2950
	1    0    0    -1  
$EndComp
$Comp
L Connector:Conn_01x01_Female J13
U 1 1 5EBF0461
P 8400 3050
F 0 "J13" H 8428 3076 50  0000 L CNN
F 1 "1P" H 8550 3100 50  0000 L CNN
F 2 "Connector_Pin:Pin_D1.0mm_L10.0mm" H 8400 3050 50  0001 C CNN
F 3 "~" H 8400 3050 50  0001 C CNN
	1    8400 3050
	1    0    0    -1  
$EndComp
$Comp
L Connector:Conn_01x01_Female J14
U 1 1 5EBF0701
P 8400 3150
F 0 "J14" H 8428 3176 50  0000 L CNN
F 1 "1P" H 8550 3200 50  0000 L CNN
F 2 "Connector_Pin:Pin_D1.0mm_L10.0mm" H 8400 3150 50  0001 C CNN
F 3 "~" H 8400 3150 50  0001 C CNN
	1    8400 3150
	1    0    0    -1  
$EndComp
$Comp
L Connector:Conn_01x01_Female J15
U 1 1 5EBF09C3
P 8400 3250
F 0 "J15" H 8428 3276 50  0000 L CNN
F 1 "1P" H 8550 3300 50  0000 L CNN
F 2 "Connector_Pin:Pin_D1.0mm_L10.0mm" H 8400 3250 50  0001 C CNN
F 3 "~" H 8400 3250 50  0001 C CNN
	1    8400 3250
	1    0    0    -1  
$EndComp
$Comp
L Connector:Conn_01x01_Female J16
U 1 1 5EBF0CCA
P 8400 3450
F 0 "J16" H 8428 3476 50  0000 L CNN
F 1 "1P" H 8550 3500 50  0000 L CNN
F 2 "Connector_Pin:Pin_D1.0mm_L10.0mm" H 8400 3450 50  0001 C CNN
F 3 "~" H 8400 3450 50  0001 C CNN
	1    8400 3450
	1    0    0    -1  
$EndComp
$Comp
L Connector:Conn_01x01_Female J17
U 1 1 5EBF1155
P 8400 3550
F 0 "J17" H 8428 3576 50  0000 L CNN
F 1 "1P" H 8550 3600 50  0000 L CNN
F 2 "Connector_Pin:Pin_D1.0mm_L10.0mm" H 8400 3550 50  0001 C CNN
F 3 "~" H 8400 3550 50  0001 C CNN
	1    8400 3550
	1    0    0    -1  
$EndComp
$Comp
L Connector:Conn_01x01_Female J18
U 1 1 5EBF1A82
P 8400 3650
F 0 "J18" H 8428 3676 50  0000 L CNN
F 1 "1P" H 8550 3700 50  0000 L CNN
F 2 "Connector_Pin:Pin_D1.0mm_L10.0mm" H 8400 3650 50  0001 C CNN
F 3 "~" H 8400 3650 50  0001 C CNN
	1    8400 3650
	1    0    0    -1  
$EndComp
$Comp
L Connector:Conn_01x01_Female J19
U 1 1 5EBF1D8E
P 8400 3750
F 0 "J19" H 8428 3776 50  0000 L CNN
F 1 "1P" H 8550 3800 50  0000 L CNN
F 2 "Connector_Pin:Pin_D1.0mm_L10.0mm" H 8400 3750 50  0001 C CNN
F 3 "~" H 8400 3750 50  0001 C CNN
	1    8400 3750
	1    0    0    -1  
$EndComp
$Comp
L Connector:Conn_01x01_Female J20
U 1 1 5EBF2038
P 9200 3850
F 0 "J20" H 9150 3750 50  0000 L CNN
F 1 "1P" H 9200 3950 50  0000 L CNN
F 2 "Connector_Pin:Pin_D1.0mm_L10.0mm" H 9200 3850 50  0001 C CNN
F 3 "~" H 9200 3850 50  0001 C CNN
	1    9200 3850
	1    0    0    -1  
$EndComp
$Comp
L Connector:Conn_01x01_Female J5
U 1 1 5EBF29BD
P 6900 3850
F 0 "J5" H 6928 3876 50  0000 L CNN
F 1 "1P" H 7050 3900 50  0000 L CNN
F 2 "Connector_Pin:Pin_D1.0mm_L10.0mm" H 6900 3850 50  0001 C CNN
F 3 "~" H 6900 3850 50  0001 C CNN
	1    6900 3850
	-1   0    0    1   
$EndComp
$Comp
L Connector:Conn_01x01_Female J6
U 1 1 5EBF32B3
P 6900 3950
F 0 "J6" H 6928 3976 50  0000 L CNN
F 1 "1P" H 7050 4000 50  0000 L CNN
F 2 "Connector_Pin:Pin_D1.0mm_L10.0mm" H 6900 3950 50  0001 C CNN
F 3 "~" H 6900 3950 50  0001 C CNN
	1    6900 3950
	-1   0    0    1   
$EndComp
$Comp
L Connector:Conn_01x01_Female J7
U 1 1 5EBF363A
P 6900 4050
F 0 "J7" H 6928 4076 50  0000 L CNN
F 1 "1P" H 7050 4100 50  0000 L CNN
F 2 "Connector_Pin:Pin_D1.0mm_L10.0mm" H 6900 4050 50  0001 C CNN
F 3 "~" H 6900 4050 50  0001 C CNN
	1    6900 4050
	-1   0    0    1   
$EndComp
$Comp
L Connector:Conn_01x01_Female J8
U 1 1 5EBF3A41
P 6900 4150
F 0 "J8" H 6928 4176 50  0000 L CNN
F 1 "1P" H 7050 4200 50  0000 L CNN
F 2 "Connector_Pin:Pin_D1.0mm_L10.0mm" H 6900 4150 50  0001 C CNN
F 3 "~" H 6900 4150 50  0001 C CNN
	1    6900 4150
	-1   0    0    1   
$EndComp
$Comp
L Connector:Conn_01x01_Female J3
U 1 1 5EBF3DC7
P 6900 3550
F 0 "J3" H 6928 3576 50  0000 L CNN
F 1 "1P" H 7050 3600 50  0000 L CNN
F 2 "Connector_Pin:Pin_D1.0mm_L10.0mm" H 6900 3550 50  0001 C CNN
F 3 "~" H 6900 3550 50  0001 C CNN
	1    6900 3550
	-1   0    0    1   
$EndComp
$Comp
L Connector:Conn_01x01_Female J4
U 1 1 5EBF42FA
P 6900 3650
F 0 "J4" H 6928 3676 50  0000 L CNN
F 1 "1P" H 7050 3700 50  0000 L CNN
F 2 "Connector_Pin:Pin_D1.0mm_L10.0mm" H 6900 3650 50  0001 C CNN
F 3 "~" H 6900 3650 50  0001 C CNN
	1    6900 3650
	-1   0    0    1   
$EndComp
Wire Wire Line
	9400 3350 9400 3900
$Comp
L Mechanical:MountingHole H1
U 1 1 5EAF53A2
P 5650 1350
F 0 "H1" H 5750 1396 50  0000 L CNN
F 1 "MountingHole" H 5750 1305 50  0000 L CNN
F 2 "MountingHole:MountingHole_2.2mm_M2_ISO14580" H 5650 1350 50  0001 C CNN
F 3 "~" H 5650 1350 50  0001 C CNN
	1    5650 1350
	1    0    0    -1  
$EndComp
$Comp
L Mechanical:MountingHole H2
U 1 1 5EAF58E9
P 6000 1350
F 0 "H2" H 6100 1396 50  0000 L CNN
F 1 "MountingHole" H 6100 1305 50  0000 L CNN
F 2 "MountingHole:MountingHole_2.2mm_M2_ISO14580" H 6000 1350 50  0001 C CNN
F 3 "~" H 6000 1350 50  0001 C CNN
	1    6000 1350
	1    0    0    -1  
$EndComp
$Comp
L Mechanical:MountingHole H3
U 1 1 5EAF5DBC
P 6350 1350
F 0 "H3" H 6450 1396 50  0000 L CNN
F 1 "MountingHole" H 6450 1305 50  0000 L CNN
F 2 "MountingHole:MountingHole_2.2mm_M2_ISO14580" H 6350 1350 50  0001 C CNN
F 3 "~" H 6350 1350 50  0001 C CNN
	1    6350 1350
	1    0    0    -1  
$EndComp
$Comp
L Mechanical:MountingHole H4
U 1 1 5EAF61DE
P 6650 1350
F 0 "H4" H 6750 1396 50  0000 L CNN
F 1 "MountingHole" H 6750 1305 50  0000 L CNN
F 2 "MountingHole:MountingHole_2.2mm_M2_ISO14580" H 6650 1350 50  0001 C CNN
F 3 "~" H 6650 1350 50  0001 C CNN
	1    6650 1350
	1    0    0    -1  
$EndComp
$Comp
L power:GND #PWR022
U 1 1 5EAFBD5F
P 5650 1600
F 0 "#PWR022" H 5650 1350 50  0001 C CNN
F 1 "GND" H 5655 1427 50  0000 C CNN
F 2 "" H 5650 1600 50  0001 C CNN
F 3 "" H 5650 1600 50  0001 C CNN
	1    5650 1600
	1    0    0    -1  
$EndComp
Wire Wire Line
	5650 1550 6000 1550
Wire Wire Line
	5650 1550 5650 1600
Wire Wire Line
	6350 1400 6350 1550
Connection ~ 6350 1550
Wire Wire Line
	6350 1550 6650 1550
Wire Wire Line
	6650 1400 6650 1550
Wire Wire Line
	6000 1400 6000 1550
Connection ~ 6000 1550
Wire Wire Line
	6000 1550 6350 1550
Wire Wire Line
	5650 1400 5650 1550
Connection ~ 5650 1550
Wire Wire Line
	8200 4050 8650 4050
Text Label 8650 4050 2    50   ~ 0
JTCK
Wire Wire Line
	8200 3950 8650 3950
Text Label 8650 3950 2    50   ~ 0
JTMS
Wire Wire Line
	8200 3850 8850 3850
Wire Wire Line
	8850 3850 8850 3050
Connection ~ 8850 3850
Wire Wire Line
	8850 3850 9000 3850
$Comp
L Device:R R3
U 1 1 5EB1CD90
P 8850 2600
F 0 "R3" H 8920 2646 50  0000 L CNN
F 1 "120" H 8920 2555 50  0000 L CNN
F 2 "Resistor_SMD:R_0402_1005Metric" V 8780 2600 50  0001 C CNN
F 3 "~" H 8850 2600 50  0001 C CNN
	1    8850 2600
	1    0    0    -1  
$EndComp
$Comp
L Device:LED D1
U 1 1 5EB1F8B7
P 8850 2900
F 0 "D1" V 8889 2783 50  0000 R CNN
F 1 "LED" V 8798 2783 50  0000 R CNN
F 2 "LED_SMD:LED_0603_1608Metric" H 8850 2900 50  0001 C CNN
F 3 "~" H 8850 2900 50  0001 C CNN
	1    8850 2900
	0    -1   -1   0   
$EndComp
$Comp
L power:+3.3V #PWR023
U 1 1 5EB21C47
P 8850 2450
F 0 "#PWR023" H 8850 2300 50  0001 C CNN
F 1 "+3.3V" H 8865 2623 50  0000 C CNN
F 2 "" H 8850 2450 50  0001 C CNN
F 3 "" H 8850 2450 50  0001 C CNN
	1    8850 2450
	1    0    0    -1  
$EndComp
$Comp
L Device:Q_NMOS_GDS Q1
U 1 1 5EB50700
P 9800 3900
F 0 "Q1" H 10004 3946 50  0000 L CNN
F 1 "Q_NMOS_GDS" H 10004 3855 50  0000 L CNN
F 2 "Package_TO_SOT_SMD:SOT-23" H 10000 4000 50  0001 C CNN
F 3 "~" H 9800 3900 50  0001 C CNN
	1    9800 3900
	1    0    0    -1  
$EndComp
$EndSCHEMATC
